<?xml version="1.0" encoding="UTF-8"?>
<!DOCTYPE suite SYSTEM "http://testng.org/testng-1.0.dtd">
<suite verbose="0" name="Failed suite [Command line suite]">
  <test name="Command line test(failed)">
    <classes>
      <class name="com.SE.WebMachine.testcases.FunctionalTests.WebMachine_ProductsPage_Test">
        <methods>
          <include name="WebMachine_ProductsPageTest" invocation-numbers="0"/>
          <include name="checkSuiteRunStatus"/>
        </methods>
      </class> <!-- com.SE.WebMachine.testcases.FunctionalTests.WebMachine_ProductsPage_Test -->
      <class name="com.SE.WebMachine.testcases.FunctionalTests.WebMachine_BeInspiredPage_Test">
        <methods>
          <include name="checkSuiteRunStatus"/>
          <include name="WebMachine_BeInspiredPageTest" invocation-numbers="0"/>
        </methods>
      </class> <!-- com.SE.WebMachine.testcases.FunctionalTests.WebMachine_BeInspiredPage_Test -->
      <class name="com.SE.WebMachine.testcases.FunctionalTests.WebMachine_SearchPage_Test">
        <methods>
          <include name="checkSuiteRunStatus"/>
          <include name="WebMachine_SearchPageTest" invocation-numbers="0"/>
        </methods>
      </class> <!-- com.SE.WebMachine.testcases.FunctionalTests.WebMachine_SearchPage_Test -->
      <class name="com.SE.WebMachine.testcases.FunctionalTests.WebMachine_HomeLandingPage_Test">
        <methods>
          <include name="checkSuiteRunStatus"/>
          <include name="WebMachine_HomeLandingPageTest" invocation-numbers="0"/>
        </methods>
      </class> <!-- com.SE.WebMachine.testcases.FunctionalTests.WebMachine_HomeLandingPage_Test -->
      <class name="com.SE.WebMachine.testcases.FunctionalTests.WebMachine_YourProjectPage_Test">
        <methods>
          <include name="checkSuiteRunStatus"/>
          <include name="WebMachine_YourProjectPageTest" invocation-numbers="0"/>
        </methods>
      </class> <!-- com.SE.WebMachine.testcases.FunctionalTests.WebMachine_YourProjectPage_Test -->
    </classes>
  </test> <!-- Command line test(failed) -->
</suite> <!-- Failed suite [Command line suite] -->
